[{
	// Инфа по акаунту
	// План медиум, например за 50 баксов в месяц
	"account_plan": "medium",
	// Текущий баланс в долларах
	"accaunt_balance": "150",
	// Автоматическое снятие денег каждый месяц
	"accaunt_subscribe": true,

	// Общая информация по хостелу
	"id": "1337",
	"hostel_name": "My tidy hostel",
	"hostel_information": "Somethings about hostel",
	"hostel_url": "http://www.tidyhostel.com/",

	// Владелец акаунта
	"owner_id": "42448",
	"owner_email": "owner@tidyhostel.com",
	"owner_password": "md5ctypt",

	"rooms": [{
		// Номер комнаты в хоестеле
		"number": 1,
		// Класс: економ, бизенс, vip
		// классы мы уточним в процессе разработки
		// класс влияет на зарплату того, кто убирает комнату
		"class": "economic",
		// Статус ready проставляется если выполненны все
		// задачи из списка задач
		// статус dirty -- значит комната не убрана
		// статус in-process -- комната убирается
		"status": "clean",
		// Дата выполения чек листа
		// по сути каждый день надо
		"date": "21/12.15",
		// И время выполнения
		"time": "12:45",
		// Человек, ответственный за уборку (ID пользователя)
		"cleaner_id": "112233445566"
	}, ],

	// Это чеклист того, что надо делать в комнате
	// его надо применять к каждой комнате
	// при этом сам список может модерироваться можератором
	"cleaner_check_list": [{
		// Допустим мытье окон
		"name": "windows",
		// Если true то тогда показывть в списке задач
		// управляеться модератором
		"enable": true,
		// Статус, если done то выполнен
		"status": "done"
	}, ],

	"users": [{
		"id": 1,
		"username": "andrey",
		"email": "hello@andreykeske.com",
		"password": "sadad*Y*(yhlkhsafn",
		// Ссылка на фото юзера
		"photo": "url",
		// Группа к которой относится пользователь
		// есть админы, уборщицы, ресепционисты и еще может пару
		"group": "admin"	
	}],
}]